…
      $peaks
      # A tibble: 138 x 5
         uid                       scan mzMeasured intensity peakNoise
         <fct>                    <int>      <dbl>     <dbl>     <dbl>
       1 nitrate_test_10scans.raw     1       62.0     1211.      513.
       2 nitrate_test_10scans.raw     1       62.0     1463.      513.
       3 nitrate_test_10scans.raw     1       62.0     1172.      513.
       4 nitrate_test_10scans.raw     1       62.0     1116.      513.
       5 nitrate_test_10scans.raw     1       62.0  4046979       513.
       6 nitrate_test_10scans.raw     1       62.0     1798.      513.
       7 nitrate_test_10scans.raw     1       62.0     1444.      513.
       8 nitrate_test_10scans.raw     1       62.0     1346.      513.
       9 nitrate_test_10scans.raw     1       62.0     1469.      513.
      10 nitrate_test_10scans.raw     1       62.1     1043.      513.
      # i 128 more rows
…
      $peaks
      # A tibble: 138 x 5
         uid                       scan mzMeasured intensity peakNoise
         <fct>                    <int>      <dbl>     <dbl>     <dbl>
       1 nitrate_test_10scans.raw     1       62.0     1211.      513.
       2 nitrate_test_10scans.raw     1       62.0     1463.      513.
       3 nitrate_test_10scans.raw     1       62.0     1172.      513.
       4 nitrate_test_10scans.raw     1       62.0     1116.      513.
       5 nitrate_test_10scans.raw     1       62.0  4046979       513.
       6 nitrate_test_10scans.raw     1       62.0     1798.      513.
       7 nitrate_test_10scans.raw     1       62.0     1444.      513.
       8 nitrate_test_10scans.raw     1       62.0     1346.      513.
       9 nitrate_test_10scans.raw     1       62.0     1469.      513.
      10 nitrate_test_10scans.raw     1       62.1     1043.      513.
      # i 128 more rows
      
      $spectra
      # A tibble: 675 x 4
         uid                       scan    mz intensity
         <fct>                    <int> <dbl>     <dbl>
       1 nitrate_test_10scans.raw     1  60.9        0 
       2 nitrate_test_10scans.raw     1  60.9        0 
       3 nitrate_test_10scans.raw     1  60.9        0 
       4 nitrate_test_10scans.raw     1  60.9        0 
       5 nitrate_test_10scans.raw     1  62.0        0 
       6 nitrate_test_10scans.raw     1  62.0        0 
       7 nitrate_test_10scans.raw     1  62.0        0 
       8 nitrate_test_10scans.raw     1  62.0        0 
       9 nitrate_test_10scans.raw     1  62.0      496.
      10 nitrate_test_10scans.raw     1  62.0      935.
      # i 665 more rows
…
