Functionality Guide • isoorbi
…
agg_data$peaks

# A tibble: 138 × 9
    uidx scan.no mzMeasured intensity baseline peakNoise peakResolution
   <int>   <int>      <dbl>     <dbl>    <dbl>     <dbl>          <dbl>
 1     1       1       62.0     1211.     8.32      513.          70900
 2     1       1       62.0     1463.     8.32      513.          94100
 3     1       1       62.0     1172.     8.31      513.          80300
 4     1       1       62.0     1116.     8.30      513.          87900
 5     1       1       62.0  4046979      8.28      513.         114902
 6     1       1       62.0     1798.     8.26      513.          86300
 7     1       1       62.0     1444.     8.26      513.          93200
 8     1       1       62.0     1346.     8.25      513.          84700
 9     1       1       62.0     1469.     8.25      513.          92400
10     1       1       62.1     1043.     8.16      513.          89900
# ℹ 128 more rows
# ℹ 2 more variables: isRefPeak <lgl>, isLockPeak <lgl>

agg_data$spectra

# A tibble: 943 × 4
    uidx scan.no    mz intensity
   <int>   <int> <dbl>     <dbl>
 1     1       1  60.9        0 
 2     1       1  60.9        0 
 3     1       1  60.9        0 
 4     1       1  60.9        0 
 5     1       1  62.0        0 
 6     1       1  62.0        0 
 7     1       1  62.0        0 
 8     1       1  62.0        0 
 9     1       1  62.0      496.
10     1       1  62.0      935.
# ℹ 933 more rows

# better way to retrieve+combine the data with dplyr select syntax:
agg_data |>
  orbi_get_data(
    file_info = c("filename", "creation_date", "instrument" = "InstrumentModel"),
    scans = c("time.min", "tic", "resolution"),
    peaks = c("mz" = "mzMeasured", starts_with("peak"))
  )

✔ [15ms] orbi_get_data() retrieved 138 records from the combination of
file_info (2), scans (11), and peaks (138) via uidx and scan.no

# A tibble: 138 × 11
    uidx filename         creation_date       instrument scan.no time.min    tic
   <int> <chr>            <dttm>              <chr>        <int>    <dbl>  <dbl>
 1     1 nitrate_test_10… 2025-01-30 13:57:12 Orbitrap …       1  0.00454 4.34e6
 2     1 nitrate_test_10… 2025-01-30 13:57:12 Orbitrap …       1  0.00454 4.34e6
 3     1 nitrate_test_10… 2025-01-30 13:57:12 Orbitrap …       1  0.00454 4.34e6
 4     1 nitrate_test_10… 2025-01-30 13:57:12 Orbitrap …       1  0.00454 4.34e6
 5     1 nitrate_test_10… 2025-01-30 13:57:12 Orbitrap …       1  0.00454 4.34e6
 6     1 nitrate_test_10… 2025-01-30 13:57:12 Orbitrap …       1  0.00454 4.34e6
 7     1 nitrate_test_10… 2025-01-30 13:57:12 Orbitrap …       1  0.00454 4.34e6
 8     1 nitrate_test_10… 2025-01-30 13:57:12 Orbitrap …       1  0.00454 4.34e6
 9     1 nitrate_test_10… 2025-01-30 13:57:12 Orbitrap …       1  0.00454 4.34e6
10     1 nitrate_test_10… 2025-01-30 13:57:12 Orbitrap …       1  0.00454 4.34e6
# ℹ 128 more rows
# ℹ 4 more variables: resolution <dbl>, mz <dbl>, peakNoise <dbl>,
#   peakResolution <dbl>
…
