Raw Files • isoorbi
…
agg_data |> orbi_get_problems()

# A tibble: 1 × 6
   uidx file                    type    call  message                 condition 
  <int> <chr>                   <chr>   <chr> <chr>                   <list>    
1     3 testfile_dual_inlet.raw warning NA    missing 1 spectrum tha… <rlng_wrn>

Retrieve (get) data

agg_data |> orbi_get_data(peaks = everything())

✔ [11ms] orbi_get_data() retrieved 51.91k records from the combination of
file_info (3) and peaks (51.91k) via uidx

# A tibble: 51,909 × 10
    uidx filename scan.no mzMeasured intensity baseline peakNoise peakResolution
   <int> <chr>      <int>      <dbl>     <dbl>    <dbl>     <dbl>          <dbl>
 1     1 nitrate…       1       62.0     1211.     8.32      513.          70900
 2     1 nitrate…       1       62.0     1463.     8.32      513.          94100
 3     1 nitrate…       1       62.0     1172.     8.31      513.          80300
 4     1 nitrate…       1       62.0     1116.     8.30      513.          87900
 5     1 nitrate…       1       62.0  4046979      8.28      513.         114902
 6     1 nitrate…       1       62.0     1798.     8.26      513.          86300
 7     1 nitrate…       1       62.0     1444.     8.26      513.          93200
 8     1 nitrate…       1       62.0     1346.     8.25      513.          84700
 9     1 nitrate…       1       62.0     1469.     8.25      513.          92400
10     1 nitrate…       1       62.1     1043.     8.16      513.          89900
# ℹ 51,899 more rows
# ℹ 2 more variables: isRefPeak <lgl>, isLockPeak <lgl>
…
